GRU	StackRNN	DSM
0.0632181	0.0947125	0
0.0301332	0.0841298	0
0.0921757	0.103838	0
0.174237	0.0788816	0
0.0493228	0.106687	0
0.0899808	0.168066	0
0.0188622	0.143929	0
0.0368648	0.0818243	0
0.0383804	0.0818093	0
0.0238852	0.0879064	0
