rand-ESN	CRJ-ESN	LDN-ESN
10.6539	0.903813	8.65775
10.5684	0.88946	8.72162
10.5871	0.891755	8.82136
10.4138	0.876852	8.56714
10.5716	0.896448	8.78574
10.4454	0.882846	8.70458
10.6655	0.898884	8.73208
10.3842	0.882392	8.67777
10.5202	0.891107	8.80643
10.632	0.892688	8.82572
