GRU	StackRNN	DSM
0.224835	0.209169	0.228976
0.21701	0.210462	0.219601
0.226987	0.214677	0.241715
0.225399	0.212706	0.225983
0.219881	0.223654	0.231353
0.21381	0.21614	0.217254
0.226886	0.221949	0.232913
0.225433	0.217455	0.231734
0.21584	0.197759	0.211738
0.218109	0.208089	0.229219
