rand-ESN	CRJ-ESN	LDN-ESN	rand-RSM	CRJ-RSM	LDN-RSM
0.133386	0.110433	0.174451	0	0	0
0.125339	0.10932	0.181319	0	0	0
0.103271	0.094478	0.144148	0	0	0
0.134486	0.122538	0.182173	0	0	0
0.136503	0.116265	0.179989	0	0	0
0.10572	0.0976874	0.15226	0	0	0
0.135515	0.131091	0.187255	0	0	0
0.156281	0.132707	0.197804	0	0	0
0.110355	0.101386	0.162678	0	0	0
0.13541	0.120787	0.186456	0	0	0
