rand-ESN	CRJ-ESN	LDN-ESN
0.266824	0.165646	0.274921
0.291167	0.183834	0.269681
0.339417	0.145916	0.25013
0.424882	0.124585	0.236899
0.341045	0.192651	0.315693
0.51853	0.202865	0.315167
0.3684	0.184995	0.276683
0.273765	0.168474	0.293399
0.283847	0.12103	0.21577
0.265846	0.159886	0.247326
