rand-ESN	CRJ-ESN	LDN-ESN	rand-RSM	CRJ-RSM	LDN-RSM
1.62596	0.794423	1.14038	15.1516	13.3704	12.5678
1.75114	0.856874	1.23804	16.5602	14.2176	13.613
1.61526	0.747874	1.36375	15.5201	13.9048	13.301
1.71341	0.80245	1.26466	15.7921	15.6446	13.1879
1.67316	0.799727	1.17136	15.23	15.2089	14.6836
1.87049	0.913886	1.37822	17.4048	14.8432	13.9974
1.74653	0.864002	1.18704	15.8372	14.2653	13.4656
1.86129	0.853084	1.29553	17.8863	15.8328	15.5487
1.93076	0.889144	1.2479	17.1779	15.7842	15.6874
2.03456	1.24805	1.50189	19.8518	17.4987	17.3615
