GRU	StackRNN	DSM
0.047981	0.0126271	0
0.0398169	0.00129977	0
0.0578402	0.00128461	0
0.0433299	0.00604602	0
0.053136	0.00110589	0
0.0816266	0.00234948	0
0.0515122	0.000571234	0
0.0313431	0.000401893	0
0.0645217	0.000323761	0
0.0609194	0.00047393	0
