GRU	StackRNN	DSM
100.615	305.235	636.574
98.1301	313.356	640.632
88.2643	269.336	581.399
103.768	292.263	606.7
97.751	303.516	633.027
95.7373	291.34	618.586
100.803	306.116	645.342
94.2236	282.583	593.915
98.1672	298.84	629.885
93.9597	287.147	606.6
