rand-ESN	CRJ-ESN	LDN-ESN
11.1766	1.0908	6.62361
11.0065	0.960025	5.98448
10.4918	0.932116	5.80402
10.7831	0.957169	6.23852
11.2295	2.04682	6.83541
13.6005	1.11186	7.39575
10.9941	1.08247	6.46455
10.7919	1.14566	6.51219
11.3418	1.13846	6.53781
11.3447	1.0188	6.38422
