rand-ESN	CRJ-ESN	LDN-ESN	rand-RSM	CRJ-RSM	LDN-RSM
0.00189995	0.00569606	0.0645295	0	0	0
0.00146904	0.00548821	0.0651671	0	0	0
0.00193342	0.00593178	0.0613863	0	0	0
0.00174955	0.00724771	0.092031	0	0	0
0.00130787	0.00556313	0.065072	0	0	0
0.00184357	0.00542619	0.0646756	0	0	0
0.00213237	0.00652199	0.0687498	0	0	0
0.00104935	0.00496542	0.0600206	0	0	0
0.00166388	0.00593409	0.0758431	0	0	0
0.00102004	0.00631798	0.0653628	0	0	0
